<?xml version="1.0" encoding="iso-8859-1"?>
<!-- Generator: Adobe Illustrator 19.0.0, SVG Export Plug-In . SVG Version: 6.00 Build 0)  -->
<svg version="1.1" id="Layer_1" xmlns="http://www.w3.org/2000/svg" xmlns:xlink="http://www.w3.org/1999/xlink" x="0px" y="0px" hill="#eb862c"
	 viewBox="0 0 426.668 426.668" style="enable-background:new 0 0 426.668 426.668;" xml:space="preserve">
<path style="fill:#eb862c;" d="M401.788,74.476c-63.492-82.432-188.446-33.792-188.446,49.92
	c0-83.712-124.962-132.356-188.463-49.92c-65.63,85.222-0.943,234.509,188.459,320.265
	C402.731,308.985,467.418,159.698,401.788,74.476z"/>
<g>
</g>
<g>
</g>
<g>
</g>
<g>
</g>
<g>
</g>
<g>
</g>
<g>
</g>
<g>
</g>
<g>
</g>
<g>
</g>
<g>
</g>
<g>
</g>
<g>
</g>
<g>
</g>
<g>
</g>
</svg>
