<?xml version="1.0" encoding="iso-8859-1"?>
<!-- Generator: Adobe Illustrator 19.0.0, SVG Export Plug-In . SVG Version: 6.00 Build 0)  -->
<svg version="1.1" id="Layer_1" xmlns="http://www.w3.org/2000/svg" xmlns:xlink="http://www.w3.org/1999/xlink" x="0px" y="0px" fill=" #a8a8a8"
	 viewBox="0 0 512 512" style="enable-background:new 0 0 512 512;" xml:space="preserve">
<g>
	<g>
		<path d="M256,314.134c-143.235,0-255.435,66.371-255.435,151.101v26.083c0,11.423,9.26,20.682,20.682,20.682
			s20.682-9.259,20.682-20.682v-26.083c0-59.484,98.032-109.737,214.071-109.737s214.071,50.253,214.071,109.737v26.083
			c0,11.423,9.259,20.682,20.682,20.682c11.423,0,20.682-9.26,20.682-20.682v-26.083C511.435,380.505,399.235,314.134,256,314.134z"
			/>
	</g>
</g>
<g>
	<g>
		<path d="M380.793,106.679c-3.963-26.728-16.158-50.955-35.265-70.062c-19.107-19.107-43.334-31.3-70.063-35.264
			c-12.166-1.804-24.506-1.804-36.675,0c-68.189,10.112-115.438,73.814-105.327,142.003c4.898,33.032,22.367,62.18,49.188,82.073
			c21.774,16.15,47.593,24.632,74.213,24.631c6.171,0,12.386-0.456,18.601-1.378C343.655,238.57,390.904,174.868,380.793,106.679z
			 M269.399,207.765c-22.098,3.279-44.158-2.247-62.104-15.559c-17.947-13.311-29.635-32.815-32.912-54.917
			c-6.766-45.628,24.85-88.253,70.477-95.019c4.072-0.603,8.171-0.905,12.271-0.905s8.2,0.302,12.27,0.905
			c36.712,5.444,65.034,33.767,70.478,70.478C346.642,158.375,315.026,201,269.399,207.765z"/>
	</g>
</g>
<g>
</g>
<g>
</g>
<g>
</g>
<g>
</g>
<g>
</g>
<g>
</g>
<g>
</g>
<g>
</g>
<g>
</g>
<g>
</g>
<g>
</g>
<g>
</g>
<g>
</g>
<g>
</g>
<g>
</g>
</svg>
